%YAML 1.1
%TAG !u! tag:unity3d.com,2011:
--- !u!1 &509416294810118562
GameObject:
  m_ObjectHideFlags: 0
  m_CorrespondingSourceObject: {fileID: 0}
  m_PrefabInstance: {fileID: 0}
  m_PrefabAsset: {fileID: 0}
  serializedVersion: 6
  m_Component:
  - component: {fileID: 8422673675849695007}
  - component: {fileID: 3886049450757543044}
  - component: {fileID: 775906528084517280}
  m_Layer: 0
  m_Name: Layer1
  m_TagString: Untagged
  m_Icon: {fileID: 0}
  m_NavMeshLayer: 0
  m_StaticEditorFlags: 0
  m_IsActive: 1
--- !u!4 &8422673675849695007
Transform:
  m_ObjectHideFlags: 0
  m_CorrespondingSourceObject: {fileID: 0}
  m_PrefabInstance: {fileID: 0}
  m_PrefabAsset: {fileID: 0}
  m_GameObject: {fileID: 509416294810118562}
  m_LocalRotation: {x: -0, y: -0, z: -0, w: 1}
  m_LocalPosition: {x: 0, y: 0, z: 0}
  m_LocalScale: {x: 1, y: 1, z: 1}
  m_Children: []
  m_Father: {fileID: 792185044683865382}
  m_RootOrder: 0
  m_LocalEulerAnglesHint: {x: 0, y: 0, z: 0}
--- !u!1839735485 &3886049450757543044
Tilemap:
  m_ObjectHideFlags: 0
  m_CorrespondingSourceObject: {fileID: 0}
  m_PrefabInstance: {fileID: 0}
  m_PrefabAsset: {fileID: 0}
  m_GameObject: {fileID: 509416294810118562}
  m_Enabled: 1
  m_Tiles:
  - first: {x: -5, y: 7, z: 0}
    second:
      serializedVersion: 2
      m_TileIndex: 18
      m_TileSpriteIndex: 18
      m_TileMatrixIndex: 0
      m_TileColorIndex: 0
      m_TileObjectToInstantiateIndex: 65535
      dummyAlignment: 0
      m_AllTileFlags: 1073741825
  - first: {x: -4, y: 7, z: 0}
    second:
      serializedVersion: 2
      m_TileIndex: 19
      m_TileSpriteIndex: 19
      m_TileMatrixIndex: 0
      m_TileColorIndex: 0
      m_TileObjectToInstantiateIndex: 65535
      dummyAlignment: 0
      m_AllTileFlags: 1073741825
  - first: {x: -3, y: 7, z: 0}
    second:
      serializedVersion: 2
      m_TileIndex: 20
      m_TileSpriteIndex: 20
      m_TileMatrixIndex: 0
      m_TileColorIndex: 0
      m_TileObjectToInstantiateIndex: 65535
      dummyAlignment: 0
      m_AllTileFlags: 1073741825
  - first: {x: -2, y: 7, z: 0}
    second:
      serializedVersion: 2
      m_TileIndex: 21
      m_TileSpriteIndex: 21
      m_TileMatrixIndex: 0
      m_TileColorIndex: 0
      m_TileObjectToInstantiateIndex: 65535
      dummyAlignment: 0
      m_AllTileFlags: 1073741825
  - first: {x: -1, y: 7, z: 0}
    second:
      serializedVersion: 2
      m_TileIndex: 22
      m_TileSpriteIndex: 22
      m_TileMatrixIndex: 0
      m_TileColorIndex: 0
      m_TileObjectToInstantiateIndex: 65535
      dummyAlignment: 0
      m_AllTileFlags: 1073741825
  - first: {x: 0, y: 7, z: 0}
    second:
      serializedVersion: 2
      m_TileIndex: 23
      m_TileSpriteIndex: 23
      m_TileMatrixIndex: 0
      m_TileColorIndex: 0
      m_TileObjectToInstantiateIndex: 65535
      dummyAlignment: 0
      m_AllTileFlags: 1073741825
  - first: {x: -5, y: 8, z: 0}
    second:
      serializedVersion: 2
      m_TileIndex: 12
      m_TileSpriteIndex: 12
      m_TileMatrixIndex: 0
      m_TileColorIndex: 0
      m_TileObjectToInstantiateIndex: 65535
      dummyAlignment: 0
      m_AllTileFlags: 1073741825
  - first: {x: -4, y: 8, z: 0}
    second:
      serializedVersion: 2
      m_TileIndex: 13
      m_TileSpriteIndex: 13
      m_TileMatrixIndex: 0
      m_TileColorIndex: 0
      m_TileObjectToInstantiateIndex: 65535
      dummyAlignment: 0
      m_AllTileFlags: 1073741825
  - first: {x: -3, y: 8, z: 0}
    second:
      serializedVersion: 2
      m_TileIndex: 14
      m_TileSpriteIndex: 14
      m_TileMatrixIndex: 0
      m_TileColorIndex: 0
      m_TileObjectToInstantiateIndex: 65535
      dummyAlignment: 0
      m_AllTileFlags: 1073741825
  - first: {x: -2, y: 8, z: 0}
    second:
      serializedVersion: 2
      m_TileIndex: 15
      m_TileSpriteIndex: 15
      m_TileMatrixIndex: 0
      m_TileColorIndex: 0
      m_TileObjectToInstantiateIndex: 65535
      dummyAlignment: 0
      m_AllTileFlags: 1073741825
  - first: {x: -1, y: 8, z: 0}
    second:
      serializedVersion: 2
      m_TileIndex: 16
      m_TileSpriteIndex: 16
      m_TileMatrixIndex: 0
      m_TileColorIndex: 0
      m_TileObjectToInstantiateIndex: 65535
      dummyAlignment: 0
      m_AllTileFlags: 1073741825
  - first: {x: 0, y: 8, z: 0}
    second:
      serializedVersion: 2
      m_TileIndex: 17
      m_TileSpriteIndex: 17
      m_TileMatrixIndex: 0
      m_TileColorIndex: 0
      m_TileObjectToInstantiateIndex: 65535
      dummyAlignment: 0
      m_AllTileFlags: 1073741825
  - first: {x: -5, y: 9, z: 0}
    second:
      serializedVersion: 2
      m_TileIndex: 6
      m_TileSpriteIndex: 6
      m_TileMatrixIndex: 0
      m_TileColorIndex: 0
      m_TileObjectToInstantiateIndex: 65535
      dummyAlignment: 0
      m_AllTileFlags: 1073741825
  - first: {x: -4, y: 9, z: 0}
    second:
      serializedVersion: 2
      m_TileIndex: 7
      m_TileSpriteIndex: 7
      m_TileMatrixIndex: 0
      m_TileColorIndex: 0
      m_TileObjectToInstantiateIndex: 65535
      dummyAlignment: 0
      m_AllTileFlags: 1073741825
  - first: {x: -3, y: 9, z: 0}
    second:
      serializedVersion: 2
      m_TileIndex: 8
      m_TileSpriteIndex: 8
      m_TileMatrixIndex: 0
      m_TileColorIndex: 0
      m_TileObjectToInstantiateIndex: 65535
      dummyAlignment: 0
      m_AllTileFlags: 1073741825
  - first: {x: -2, y: 9, z: 0}
    second:
      serializedVersion: 2
      m_TileIndex: 9
      m_TileSpriteIndex: 9
      m_TileMatrixIndex: 0
      m_TileColorIndex: 0
      m_TileObjectToInstantiateIndex: 65535
      dummyAlignment: 0
      m_AllTileFlags: 1073741825
  - first: {x: -1, y: 9, z: 0}
    second:
      serializedVersion: 2
      m_TileIndex: 10
      m_TileSpriteIndex: 10
      m_TileMatrixIndex: 0
      m_TileColorIndex: 0
      m_TileObjectToInstantiateIndex: 65535
      dummyAlignment: 0
      m_AllTileFlags: 1073741825
  - first: {x: 0, y: 9, z: 0}
    second:
      serializedVersion: 2
      m_TileIndex: 11
      m_TileSpriteIndex: 11
      m_TileMatrixIndex: 0
      m_TileColorIndex: 0
      m_TileObjectToInstantiateIndex: 65535
      dummyAlignment: 0
      m_AllTileFlags: 1073741825
  - first: {x: -11, y: 10, z: 0}
    second:
      serializedVersion: 2
      m_TileIndex: 24
      m_TileSpriteIndex: 24
      m_TileMatrixIndex: 0
      m_TileColorIndex: 0
      m_TileObjectToInstantiateIndex: 65535
      dummyAlignment: 0
      m_AllTileFlags: 1073741825
  - first: {x: -10, y: 10, z: 0}
    second:
      serializedVersion: 2
      m_TileIndex: 25
      m_TileSpriteIndex: 25
      m_TileMatrixIndex: 0
      m_TileColorIndex: 0
      m_TileObjectToInstantiateIndex: 65535
      dummyAlignment: 0
      m_AllTileFlags: 1073741825
  - first: {x: -9, y: 10, z: 0}
    second:
      serializedVersion: 2
      m_TileIndex: 26
      m_TileSpriteIndex: 26
      m_TileMatrixIndex: 0
      m_TileColorIndex: 0
      m_TileObjectToInstantiateIndex: 65535
      dummyAlignment: 0
      m_AllTileFlags: 1073741825
  - first: {x: -8, y: 10, z: 0}
    second:
      serializedVersion: 2
      m_TileIndex: 27
      m_TileSpriteIndex: 27
      m_TileMatrixIndex: 0
      m_TileColorIndex: 0
      m_TileObjectToInstantiateIndex: 65535
      dummyAlignment: 0
      m_AllTileFlags: 1073741825
  - first: {x: -7, y: 10, z: 0}
    second:
      serializedVersion: 2
      m_TileIndex: 28
      m_TileSpriteIndex: 28
      m_TileMatrixIndex: 0
      m_TileColorIndex: 0
      m_TileObjectToInstantiateIndex: 65535
      dummyAlignment: 0
      m_AllTileFlags: 1073741825
  - first: {x: -6, y: 10, z: 0}
    second:
      serializedVersion: 2
      m_TileIndex: 29
      m_TileSpriteIndex: 29
      m_TileMatrixIndex: 0
      m_TileColorIndex: 0
      m_TileObjectToInstantiateIndex: 65535
      dummyAlignment: 0
      m_AllTileFlags: 1073741825
  - first: {x: -5, y: 10, z: 0}
    second:
      serializedVersion: 2
      m_TileIndex: 0
      m_TileSpriteIndex: 0
      m_TileMatrixIndex: 0
      m_TileColorIndex: 0
      m_TileObjectToInstantiateIndex: 65535
      dummyAlignment: 0
      m_AllTileFlags: 1073741825
  - first: {x: -4, y: 10, z: 0}
    second:
      serializedVersion: 2
      m_TileIndex: 1
      m_TileSpriteIndex: 1
      m_TileMatrixIndex: 0
      m_TileColorIndex: 0
      m_TileObjectToInstantiateIndex: 65535
      dummyAlignment: 0
      m_AllTileFlags: 1073741825
  - first: {x: -3, y: 10, z: 0}
    second:
      serializedVersion: 2
      m_TileIndex: 2
      m_TileSpriteIndex: 2
      m_TileMatrixIndex: 0
      m_TileColorIndex: 0
      m_TileObjectToInstantiateIndex: 65535
      dummyAlignment: 0
      m_AllTileFlags: 1073741825
  - first: {x: -2, y: 10, z: 0}
    second:
      serializedVersion: 2
      m_TileIndex: 3
      m_TileSpriteIndex: 3
      m_TileMatrixIndex: 0
      m_TileColorIndex: 0
      m_TileObjectToInstantiateIndex: 65535
      dummyAlignment: 0
      m_AllTileFlags: 1073741825
  - first: {x: -1, y: 10, z: 0}
    second:
      serializedVersion: 2
      m_TileIndex: 4
      m_TileSpriteIndex: 4
      m_TileMatrixIndex: 0
      m_TileColorIndex: 0
      m_TileObjectToInstantiateIndex: 65535
      dummyAlignment: 0
      m_AllTileFlags: 1073741825
  - first: {x: 0, y: 10, z: 0}
    second:
      serializedVersion: 2
      m_TileIndex: 5
      m_TileSpriteIndex: 5
      m_TileMatrixIndex: 0
      m_TileColorIndex: 0
      m_TileObjectToInstantiateIndex: 65535
      dummyAlignment: 0
      m_AllTileFlags: 1073741825
  - first: {x: 4, y: 10, z: 0}
    second:
      serializedVersion: 2
      m_TileIndex: 30
      m_TileSpriteIndex: 30
      m_TileMatrixIndex: 0
      m_TileColorIndex: 0
      m_TileObjectToInstantiateIndex: 65535
      dummyAlignment: 0
      m_AllTileFlags: 1073741825
  m_AnimatedTiles: {}
  m_TileAssetArray:
  - m_RefCount: 1
    m_Data: {fileID: 11400000, guid: db6cfbaf40141144e96ff69c237a54b1, type: 2}
  - m_RefCount: 1
    m_Data: {fileID: 11400000, guid: 6f03566797377cb408f46aa13a888fc4, type: 2}
  - m_RefCount: 1
    m_Data: {fileID: 11400000, guid: 6e0659628ed5ad14fbdf73ee17bbf032, type: 2}
  - m_RefCount: 1
    m_Data: {fileID: 11400000, guid: 2bf94e2c013f0cc4ea6aeb3ce90a8d2c, type: 2}
  - m_RefCount: 1
    m_Data: {fileID: 11400000, guid: f099c4592d174014bb790f76dc15a678, type: 2}
  - m_RefCount: 1
    m_Data: {fileID: 11400000, guid: f4e109caaff49c643ba34f0bb7eb5ec5, type: 2}
  - m_RefCount: 1
    m_Data: {fileID: 11400000, guid: c53bf54060d1fa949b38817ca92e24f4, type: 2}
  - m_RefCount: 1
    m_Data: {fileID: 11400000, guid: 1ec70574d5d50f44da281f40260f45e9, type: 2}
  - m_RefCount: 1
    m_Data: {fileID: 11400000, guid: d5fa8a2de1803f64bb2757e2d5dbbb74, type: 2}
  - m_RefCount: 1
    m_Data: {fileID: 11400000, guid: 0234b9905bfce9d4b97ae963cba88a98, type: 2}
  - m_RefCount: 1
    m_Data: {fileID: 11400000, guid: f8fb9c9ec757f744a8f3ab0b83db057e, type: 2}
  - m_RefCount: 1
    m_Data: {fileID: 11400000, guid: 3e7a785988ce20d40a3659548a2c4cbf, type: 2}
  - m_RefCount: 1
    m_Data: {fileID: 11400000, guid: f24768ed74ad9594fa18d3fe0eed386e, type: 2}
  - m_RefCount: 1
    m_Data: {fileID: 11400000, guid: 88ed707f37e50554cb19e5fcf32c762f, type: 2}
  - m_RefCount: 1
    m_Data: {fileID: 11400000, guid: 1c5cedb8f9dea4b49907936e3687ea1e, type: 2}
  - m_RefCount: 1
    m_Data: {fileID: 11400000, guid: 009397d63219d9040be4c9ed2489555a, type: 2}
  - m_RefCount: 1
    m_Data: {fileID: 11400000, guid: af136d2085efecf4d841860691453e9f, type: 2}
  - m_RefCount: 1
    m_Data: {fileID: 11400000, guid: 41c90addbe222254baad094751aa4964, type: 2}
  - m_RefCount: 1
    m_Data: {fileID: 11400000, guid: fe3fc4b54b6324a46a09e25e4519fae4, type: 2}
  - m_RefCount: 1
    m_Data: {fileID: 11400000, guid: f660ac4d213b78649af2d0935cceeae7, type: 2}
  - m_RefCount: 1
    m_Data: {fileID: 11400000, guid: 8aa99bbd308c0e840bbf0f72ad1d5f7d, type: 2}
  - m_RefCount: 1
    m_Data: {fileID: 11400000, guid: e3d85c2a997576f43bec53a25c205f2e, type: 2}
  - m_RefCount: 1
    m_Data: {fileID: 11400000, guid: 7ba4f4ca3fb1b7f49a80a71311fff560, type: 2}
  - m_RefCount: 1
    m_Data: {fileID: 11400000, guid: 1b9e8de0106646a4da06b5a67ccfd108, type: 2}
  - m_RefCount: 1
    m_Data: {fileID: 11400000, guid: e8998fca581c1604c91fc65f5281118c, type: 2}
  - m_RefCount: 1
    m_Data: {fileID: 11400000, guid: 82c803ce81fd30a40974c34a403ef561, type: 2}
  - m_RefCount: 1
    m_Data: {fileID: 11400000, guid: 03496b0f22a81624a8f50df1580d90e2, type: 2}
  - m_RefCount: 1
    m_Data: {fileID: 11400000, guid: d787e5f5bc614da42a128bbe6241aae9, type: 2}
  - m_RefCount: 1
    m_Data: {fileID: 11400000, guid: 5f49ae8111c65b545b4468b48ea0a8ab, type: 2}
  - m_RefCount: 1
    m_Data: {fileID: 11400000, guid: ea4c25732e25bc1479d47fbc99d38ee8, type: 2}
  - m_RefCount: 1
    m_Data: {fileID: 11400000, guid: b503c191a1b1f4d48837df962665c456, type: 2}
  m_TileSpriteArray:
  - m_RefCount: 1
    m_Data: {fileID: -8770595607028227578, guid: 1379cf51345707743b3ef53e30171342, type: 3}
  - m_RefCount: 1
    m_Data: {fileID: 4830371195934707346, guid: 1379cf51345707743b3ef53e30171342, type: 3}
  - m_RefCount: 1
    m_Data: {fileID: -4730134890760455115, guid: 1379cf51345707743b3ef53e30171342, type: 3}
  - m_RefCount: 1
    m_Data: {fileID: -5798064741869452109, guid: 1379cf51345707743b3ef53e30171342, type: 3}
  - m_RefCount: 1
    m_Data: {fileID: 5207186808593534226, guid: 1379cf51345707743b3ef53e30171342, type: 3}
  - m_RefCount: 1
    m_Data: {fileID: 5127886212834874967, guid: 1379cf51345707743b3ef53e30171342, type: 3}
  - m_RefCount: 1
    m_Data: {fileID: 3896726436329107648, guid: 1379cf51345707743b3ef53e30171342, type: 3}
  - m_RefCount: 1
    m_Data: {fileID: -8440855191496693253, guid: 1379cf51345707743b3ef53e30171342, type: 3}
  - m_RefCount: 1
    m_Data: {fileID: -5915155779594045378, guid: 1379cf51345707743b3ef53e30171342, type: 3}
  - m_RefCount: 1
    m_Data: {fileID: -7203245137763765234, guid: 1379cf51345707743b3ef53e30171342, type: 3}
  - m_RefCount: 1
    m_Data: {fileID: 4758527598311840412, guid: 1379cf51345707743b3ef53e30171342, type: 3}
  - m_RefCount: 1
    m_Data: {fileID: 164614396875331129, guid: 1379cf51345707743b3ef53e30171342, type: 3}
  - m_RefCount: 1
    m_Data: {fileID: 6885167060629239511, guid: 1379cf51345707743b3ef53e30171342, type: 3}
  - m_RefCount: 1
    m_Data: {fileID: 3216132084361929350, guid: 1379cf51345707743b3ef53e30171342, type: 3}
  - m_RefCount: 1
    m_Data: {fileID: 2409950816868882326, guid: 1379cf51345707743b3ef53e30171342, type: 3}
  - m_RefCount: 1
    m_Data: {fileID: 5537139471199430464, guid: 1379cf51345707743b3ef53e30171342, type: 3}
  - m_RefCount: 1
    m_Data: {fileID: 9064358538546505536, guid: 1379cf51345707743b3ef53e30171342, type: 3}
  - m_RefCount: 1
    m_Data: {fileID: 7022178600037510000, guid: 1379cf51345707743b3ef53e30171342, type: 3}
  - m_RefCount: 1
    m_Data: {fileID: 3376315490657542566, guid: 1379cf51345707743b3ef53e30171342, type: 3}
  - m_RefCount: 1
    m_Data: {fileID: 3394878648129125398, guid: 1379cf51345707743b3ef53e30171342, type: 3}
  - m_RefCount: 1
    m_Data: {fileID: -159984458102654103, guid: 1379cf51345707743b3ef53e30171342, type: 3}
  - m_RefCount: 1
    m_Data: {fileID: -3704188154340303293, guid: 1379cf51345707743b3ef53e30171342, type: 3}
  - m_RefCount: 1
    m_Data: {fileID: -915478160241329581, guid: 1379cf51345707743b3ef53e30171342, type: 3}
  - m_RefCount: 1
    m_Data: {fileID: -743999339598113680, guid: 1379cf51345707743b3ef53e30171342, type: 3}
  - m_RefCount: 1
    m_Data: {fileID: -1784622585059062492, guid: 1379cf51345707743b3ef53e30171342, type: 3}
  - m_RefCount: 1
    m_Data: {fileID: -3533065164481012786, guid: 1379cf51345707743b3ef53e30171342, type: 3}
  - m_RefCount: 1
    m_Data: {fileID: 7726425404441892040, guid: 1379cf51345707743b3ef53e30171342, type: 3}
  - m_RefCount: 1
    m_Data: {fileID: 8722872390562356291, guid: 1379cf51345707743b3ef53e30171342, type: 3}
  - m_RefCount: 1
    m_Data: {fileID: -5399860754288617736, guid: 1379cf51345707743b3ef53e30171342, type: 3}
  - m_RefCount: 1
    m_Data: {fileID: 7718474941222868776, guid: 1379cf51345707743b3ef53e30171342, type: 3}
  - m_RefCount: 1
    m_Data: {fileID: 1879739602403164253, guid: 1379cf51345707743b3ef53e30171342, type: 3}
  m_TileMatrixArray:
  - m_RefCount: 31
    m_Data:
      e00: 1
      e01: 0
      e02: 0
      e03: 0
      e10: 0
      e11: 1
      e12: 0
      e13: 0
      e20: 0
      e21: 0
      e22: 1
      e23: 0
      e30: 0
      e31: 0
      e32: 0
      e33: 1
  m_TileColorArray:
  - m_RefCount: 31
    m_Data: {r: 1, g: 1, b: 1, a: 1}
  m_TileObjectToInstantiateArray: []
  m_AnimationFrameRate: 1
  m_Color: {r: 1, g: 1, b: 1, a: 1}
  m_Origin: {x: -11, y: 0, z: 0}
  m_Size: {x: 16, y: 11, z: 1}
  m_TileAnchor: {x: 0.5, y: 0.5, z: 0}
  m_TileOrientation: 0
  m_TileOrientationMatrix:
    e00: 1
    e01: 0
    e02: 0
    e03: 0
    e10: 0
    e11: 1
    e12: 0
    e13: 0
    e20: 0
    e21: 0
    e22: 1
    e23: 0
    e30: 0
    e31: 0
    e32: 0
    e33: 1
--- !u!483693784 &775906528084517280
TilemapRenderer:
  m_ObjectHideFlags: 0
  m_CorrespondingSourceObject: {fileID: 0}
  m_PrefabInstance: {fileID: 0}
  m_PrefabAsset: {fileID: 0}
  m_GameObject: {fileID: 509416294810118562}
  m_Enabled: 1
  m_CastShadows: 0
  m_ReceiveShadows: 0
  m_DynamicOccludee: 0
  m_MotionVectors: 1
  m_LightProbeUsage: 0
  m_ReflectionProbeUsage: 0
  m_RayTracingMode: 0
  m_RayTraceProcedural: 0
  m_RenderingLayerMask: 1
  m_RendererPriority: 0
  m_Materials:
  - {fileID: 10754, guid: 0000000000000000f000000000000000, type: 0}
  m_StaticBatchInfo:
    firstSubMesh: 0
    subMeshCount: 0
  m_StaticBatchRoot: {fileID: 0}
  m_ProbeAnchor: {fileID: 0}
  m_LightProbeVolumeOverride: {fileID: 0}
  m_ScaleInLightmap: 1
  m_ReceiveGI: 1
  m_PreserveUVs: 0
  m_IgnoreNormalsForChartDetection: 0
  m_ImportantGI: 0
  m_StitchLightmapSeams: 1
  m_SelectedEditorRenderState: 0
  m_MinimumChartSize: 4
  m_AutoUVMaxDistance: 0.5
  m_AutoUVMaxAngle: 89
  m_LightmapParameters: {fileID: 0}
  m_SortingLayerID: 0
  m_SortingLayer: 0
  m_SortingOrder: 0
  m_ChunkSize: {x: 32, y: 32, z: 32}
  m_ChunkCullingBounds: {x: 1, y: 0.90625, z: 0}
  m_MaxChunkCount: 16
  m_MaxFrameAge: 16
  m_SortOrder: 0
  m_Mode: 0
  m_DetectChunkCullingBounds: 0
  m_MaskInteraction: 0
--- !u!1 &1498324398564607714
GameObject:
  m_ObjectHideFlags: 0
  m_CorrespondingSourceObject: {fileID: 0}
  m_PrefabInstance: {fileID: 0}
  m_PrefabAsset: {fileID: 0}
  serializedVersion: 6
  m_Component:
  - component: {fileID: 792185044683865382}
  - component: {fileID: 1492331855647006216}
  m_Layer: 31
  m_Name: Items
  m_TagString: Untagged
  m_Icon: {fileID: 0}
  m_NavMeshLayer: 0
  m_StaticEditorFlags: 0
  m_IsActive: 1
--- !u!4 &792185044683865382
Transform:
  m_ObjectHideFlags: 0
  m_CorrespondingSourceObject: {fileID: 0}
  m_PrefabInstance: {fileID: 0}
  m_PrefabAsset: {fileID: 0}
  m_GameObject: {fileID: 1498324398564607714}
  m_LocalRotation: {x: 0, y: 0, z: 0, w: 1}
  m_LocalPosition: {x: 0, y: 0, z: 0}
  m_LocalScale: {x: 1, y: 1, z: 1}
  m_Children:
  - {fileID: 8422673675849695007}
  m_Father: {fileID: 0}
  m_RootOrder: 0
  m_LocalEulerAnglesHint: {x: 0, y: 0, z: 0}
--- !u!156049354 &1492331855647006216
Grid:
  m_ObjectHideFlags: 0
  m_CorrespondingSourceObject: {fileID: 0}
  m_PrefabInstance: {fileID: 0}
  m_PrefabAsset: {fileID: 0}
  m_GameObject: {fileID: 1498324398564607714}
  m_Enabled: 1
  m_CellSize: {x: 0.875, y: 1.5, z: 0}
  m_CellGap: {x: 0, y: 0, z: 0}
  m_CellLayout: 0
  m_CellSwizzle: 0
--- !u!114 &2798516654389415022
MonoBehaviour:
  m_ObjectHideFlags: 0
  m_CorrespondingSourceObject: {fileID: 0}
  m_PrefabInstance: {fileID: 0}
  m_PrefabAsset: {fileID: 0}
  m_GameObject: {fileID: 0}
  m_Enabled: 1
  m_EditorHideFlags: 0
  m_Script: {fileID: 12395, guid: 0000000000000000e000000000000000, type: 0}
  m_Name: Palette Settings
  m_EditorClassIdentifier: 
  cellSizing: 0
  m_TransparencySortMode: 0
  m_TransparencySortAxis: {x: 0, y: 0, z: 1}
